<svg width="22" height="22" viewBox="0 0 22 22" fill="none" xmlns="http://www.w3.org/2000/svg">
<path d="M11.0012 8.58001C10.6832 8.58001 10.3684 8.64263 10.0747 8.7643C9.78092 8.88597 9.51402 9.06431 9.2892 9.28913C9.06438 9.51395 8.88605 9.78085 8.76437 10.0746C8.6427 10.3683 8.58008 10.6832 8.58008 11.0011C8.58008 11.319 8.6427 11.6339 8.76437 11.9276C8.88605 12.2214 9.06438 12.4883 9.2892 12.7131C9.51402 12.9379 9.78092 13.1162 10.0747 13.2379C10.3684 13.3596 10.6832 13.4222 11.0012 13.4222C11.6433 13.4221 12.2591 13.1668 12.713 12.7127C13.1669 12.2585 13.4219 11.6427 13.4217 11.0006C13.4216 10.3584 13.1664 9.74268 12.7122 9.28874C12.2581 8.8348 11.6422 8.57986 11.0001 8.58001H11.0012ZM11.0012 5.72001C11.319 5.71986 11.6336 5.65712 11.9272 5.53537C12.2207 5.41362 12.4874 5.23525 12.7121 5.01043C12.9367 4.78561 13.1148 4.51875 13.2363 4.22508C13.3578 3.93142 13.4202 3.6167 13.4201 3.29891C13.4199 2.98111 13.3572 2.66645 13.2354 2.3729C13.1137 2.07934 12.9353 1.81264 12.7105 1.58803C12.4857 1.36341 12.2188 1.18528 11.9252 1.0638C11.6315 0.942313 11.3168 0.879861 10.999 0.880005C10.3572 0.880297 9.74173 1.13554 9.2881 1.58958C8.83447 2.04363 8.57979 2.65928 8.58008 3.30111C8.58037 3.94293 8.83561 4.55835 9.28966 5.01198C9.7437 5.46561 10.3594 5.7203 11.0012 5.72001ZM11.0012 16.28C10.3591 16.28 9.74325 16.5351 9.2892 16.9891C8.83516 17.4432 8.58008 18.059 8.58008 18.7011C8.58008 19.3432 8.83516 19.959 9.2892 20.4131C9.74325 20.8671 10.3591 21.1222 11.0012 21.1222C11.6433 21.1222 12.2591 20.8671 12.7132 20.4131C13.1672 19.959 13.4223 19.3432 13.4223 18.7011C13.4223 18.059 13.1672 17.4432 12.7132 16.9891C12.2591 16.5351 11.6433 16.28 11.0012 16.28Z" fill="white"/>
</svg>
