<svg width="32" height="32" viewBox="0 0 32 32" fill="none" xmlns="http://www.w3.org/2000/svg">
<g clip-path="url(#clip0_339_75)">
<path d="M7.99984 18.6667C7.2665 18.6667 6.6665 19.2667 6.6665 20V24C6.6665 24.7334 7.2665 25.3334 7.99984 25.3334H11.9998C12.7332 25.3334 13.3332 24.7334 13.3332 24C13.3332 23.2667 12.7332 22.6667 11.9998 22.6667H9.33317V20C9.33317 19.2667 8.73317 18.6667 7.99984 18.6667ZM7.99984 13.3334C8.73317 13.3334 9.33317 12.7334 9.33317 12V9.33335H11.9998C12.7332 9.33335 13.3332 8.73335 13.3332 8.00002C13.3332 7.26669 12.7332 6.66669 11.9998 6.66669H7.99984C7.2665 6.66669 6.6665 7.26669 6.6665 8.00002V12C6.6665 12.7334 7.2665 13.3334 7.99984 13.3334ZM22.6665 22.6667H19.9998C19.2665 22.6667 18.6665 23.2667 18.6665 24C18.6665 24.7334 19.2665 25.3334 19.9998 25.3334H23.9998C24.7332 25.3334 25.3332 24.7334 25.3332 24V20C25.3332 19.2667 24.7332 18.6667 23.9998 18.6667C23.2665 18.6667 22.6665 19.2667 22.6665 20V22.6667ZM18.6665 8.00002C18.6665 8.73335 19.2665 9.33335 19.9998 9.33335H22.6665V12C22.6665 12.7334 23.2665 13.3334 23.9998 13.3334C24.7332 13.3334 25.3332 12.7334 25.3332 12V8.00002C25.3332 7.26669 24.7332 6.66669 23.9998 6.66669H19.9998C19.2665 6.66669 18.6665 7.26669 18.6665 8.00002Z" fill="#CECECE"/>
</g>
<defs>
<clipPath id="clip0_339_75">
<rect width="32" height="32" fill="white"/>
</clipPath>
</defs>
</svg>
