<svg width="32" height="32" viewBox="0 0 32 32" fill="none" xmlns="http://www.w3.org/2000/svg">
<path d="M10.6667 6.66669C9.95942 6.66669 9.28115 6.94764 8.78105 7.44774C8.28095 7.94783 8 8.62611 8 9.33335V22.6667C8 23.3739 8.28095 24.0522 8.78105 24.5523C9.28115 25.0524 9.95942 25.3334 10.6667 25.3334C11.3739 25.3334 12.0522 25.0524 12.5523 24.5523C13.0524 24.0522 13.3333 23.3739 13.3333 22.6667V9.33335C13.3333 8.62611 13.0524 7.94783 12.5523 7.44774C12.0522 6.94764 11.3739 6.66669 10.6667 6.66669ZM21.3333 6.66669C20.6261 6.66669 19.9478 6.94764 19.4477 7.44774C18.9476 7.94783 18.6667 8.62611 18.6667 9.33335V22.6667C18.6667 23.3739 18.9476 24.0522 19.4477 24.5523C19.9478 25.0524 20.6261 25.3334 21.3333 25.3334C22.0406 25.3334 22.7189 25.0524 23.219 24.5523C23.719 24.0522 24 23.3739 24 22.6667V9.33335C24 8.62611 23.719 7.94783 23.219 7.44774C22.7189 6.94764 22.0406 6.66669 21.3333 6.66669Z" fill="white"/>
</svg>
