<svg width="32" height="32" viewBox="0 0 32 32" fill="none" xmlns="http://www.w3.org/2000/svg">
<path d="M19.4689 8.00156C19.0628 8.00156 18.6734 8.14202 18.3862 8.39204C18.0991 8.64207 17.9378 8.98117 17.9378 9.33476V14.4276L17.7234 14.2276L9.91483 8.61483C9.44474 8.28685 8.87829 8.08046 8.28003 8.01918C7.68178 7.95789 7.07578 8.04418 6.5311 8.2682C6.07204 8.45957 5.68461 8.76023 5.41364 9.13537C5.14268 9.51052 4.99927 9.94482 5 10.388V21.6136C4.99927 22.0567 5.14268 22.491 5.41364 22.8662C5.68461 23.2413 6.07204 23.542 6.5311 23.7334C6.96879 23.9067 7.44359 23.9975 7.9244 24C8.64909 24.0008 9.35197 23.7842 9.91483 23.3867L17.7234 17.7739L17.9378 17.574V22.6668C17.9378 23.0204 18.0991 23.3595 18.3862 23.6095C18.6734 23.8595 19.0628 24 19.4689 24C19.875 24 20.2644 23.8595 20.5516 23.6095C20.8387 23.3595 21 23.0204 21 22.6668V9.33476C21 8.98117 20.8387 8.64207 20.5516 8.39204C20.2644 8.14202 19.875 8.00156 19.4689 8.00156Z" fill="white"/>
</svg>
